<?xml version="1.0" standalone="no"?>
<!DOCTYPE svg PUBLIC "-//W3C//DTD SVG 1.1//EN" "http://www.w3.org/Graphics/SVG/1.1/DTD/svg11.dtd" >
<svg xmlns="http://www.w3.org/2000/svg">
<metadata>Generated by IcoMoon</metadata>
<defs>
<font id="icomoon" horiz-adv-x="1024">
<font-face units-per-em="1024" ascent="960" descent="-64" />
<missing-glyph horiz-adv-x="1024" />
<glyph unicode="&#x20;" horiz-adv-x="512" d="" />
<glyph unicode="&#xf00c;" glyph-name="check" d="M954.857 627.428c0-14.286-5.714-28.571-16-38.857l-491.429-491.429c-10.286-10.286-24.571-16-38.857-16s-28.571 5.714-38.857 16l-284.571 284.571c-10.286 10.286-16 24.571-16 38.857s5.714 28.571 16 38.857l77.714 77.714c10.286 10.286 24.571 16 38.857 16s28.571-5.714 38.857-16l168-168.571 374.857 375.429c10.286 10.286 24.571 16 38.857 16s28.571-5.714 38.857-16l77.714-77.714c10.286-10.286 16-24.571 16-38.857z" />
<glyph unicode="&#xf00d;" glyph-name="close, remove, times" horiz-adv-x="805" d="M741.714 195.428c0-14.286-5.714-28.571-16-38.857l-77.714-77.714c-10.286-10.286-24.571-16-38.857-16s-28.571 5.714-38.857 16l-168 168-168-168c-10.286-10.286-24.571-16-38.857-16s-28.571 5.714-38.857 16l-77.714 77.714c-10.286 10.286-16 24.571-16 38.857s5.714 28.571 16 38.857l168 168-168 168c-10.286 10.286-16 24.571-16 38.857s5.714 28.571 16 38.857l77.714 77.714c10.286 10.286 24.571 16 38.857 16s28.571-5.714 38.857-16l168-168 168 168c10.286 10.286 24.571 16 38.857 16s28.571-5.714 38.857-16l77.714-77.714c10.286-10.286 16-24.571 16-38.857s-5.714-28.571-16-38.857l-168-168 168-168c10.286-10.286 16-24.571 16-38.857z" />
<glyph unicode="&#xf013;" glyph-name="cog, gear" horiz-adv-x="878" d="M585.143 438.857c0 80.571-65.714 146.286-146.286 146.286s-146.286-65.714-146.286-146.286 65.714-146.286 146.286-146.286 146.286 65.714 146.286 146.286zM877.714 501.143v-126.857c0-8.571-6.857-18.857-16-20.571l-105.714-16c-6.286-18.286-13.143-35.429-22.286-52 19.429-28 40-53.143 61.143-78.857 3.429-4 5.714-9.143 5.714-14.286s-1.714-9.143-5.143-13.143c-13.714-18.286-90.857-102.286-110.286-102.286-5.143 0-10.286 2.286-14.857 5.143l-78.857 61.714c-16.571-8.571-34.286-16-52-21.714-4-34.857-7.429-72-16.571-106.286-2.286-9.143-10.286-16-20.571-16h-126.857c-10.286 0-19.429 7.429-20.571 17.143l-16 105.143c-17.714 5.714-34.857 12.571-51.429 21.143l-80.571-61.143c-4-3.429-9.143-5.143-14.286-5.143s-10.286 2.286-14.286 6.286c-30.286 27.429-70.286 62.857-94.286 96-2.857 4-4 8.571-4 13.143 0 5.143 1.714 9.143 4.571 13.143 19.429 26.286 40.571 51.429 60 78.286-9.714 18.286-17.714 37.143-23.429 56.571l-104.571 15.429c-9.714 1.714-16.571 10.857-16.571 20.571v126.857c0 8.571 6.857 18.857 15.429 20.571l106.286 16c5.714 18.286 13.143 35.429 22.286 52.571-19.429 27.429-40 53.143-61.143 78.857-3.429 4-5.714 8.571-5.714 13.714s2.286 9.143 5.143 13.143c13.714 18.857 90.857 102.286 110.286 102.286 5.143 0 10.286-2.286 14.857-5.714l78.857-61.143c16.571 8.571 34.286 16 52 21.714 4 34.857 7.429 72 16.571 106.286 2.286 9.143 10.286 16 20.571 16h126.857c10.286 0 19.429-7.429 20.571-17.143l16-105.143c17.714-5.714 34.857-12.571 51.429-21.143l81.143 61.143c3.429 3.429 8.571 5.143 13.714 5.143s10.286-2.286 14.286-5.714c30.286-28 70.286-63.429 94.286-97.143 2.857-3.429 4-8 4-12.571 0-5.143-1.714-9.143-4.571-13.143-19.429-26.286-40.571-51.429-60-78.286 9.714-18.286 17.714-37.143 23.429-56l104.571-16c9.714-1.714 16.571-10.857 16.571-20.571z" />
<glyph unicode="&#xf016;" glyph-name="file-o" horiz-adv-x="878" d="M838.857 733.714c21.143-21.143 38.857-63.429 38.857-93.714v-658.286c0-30.286-24.571-54.857-54.857-54.857h-768c-30.286 0-54.857 24.571-54.857 54.857v914.286c0 30.286 24.571 54.857 54.857 54.857h512c30.286 0 72.571-17.714 93.714-38.857zM585.143 873.143v-214.857h214.857c-3.429 9.714-8.571 19.429-12.571 23.429l-178.857 178.857c-4 4-13.714 9.143-23.429 12.571zM804.571 0v585.143h-237.714c-30.286 0-54.857 24.571-54.857 54.857v237.714h-438.857v-877.714h731.429z" />
<glyph unicode="&#xf017;" glyph-name="clock-o" horiz-adv-x="878" d="M512 640v-256c0-10.286-8-18.286-18.286-18.286h-182.857c-10.286 0-18.286 8-18.286 18.286v36.571c0 10.286 8 18.286 18.286 18.286h128v201.143c0 10.286 8 18.286 18.286 18.286h36.571c10.286 0 18.286-8 18.286-18.286zM749.714 438.857c0 171.429-139.429 310.857-310.857 310.857s-310.857-139.429-310.857-310.857 139.429-310.857 310.857-310.857 310.857 139.429 310.857 310.857zM877.714 438.857c0-242.286-196.571-438.857-438.857-438.857s-438.857 196.571-438.857 438.857 196.571 438.857 438.857 438.857 438.857-196.571 438.857-438.857z" />
<glyph unicode="&#xf019;" glyph-name="download" horiz-adv-x="951" d="M731.429 182.857c0 20-16.571 36.571-36.571 36.571s-36.571-16.571-36.571-36.571 16.571-36.571 36.571-36.571 36.571 16.571 36.571 36.571zM877.714 182.857c0 20-16.571 36.571-36.571 36.571s-36.571-16.571-36.571-36.571 16.571-36.571 36.571-36.571 36.571 16.571 36.571 36.571zM950.857 310.857v-182.857c0-30.286-24.571-54.857-54.857-54.857h-841.143c-30.286 0-54.857 24.571-54.857 54.857v182.857c0 30.286 24.571 54.857 54.857 54.857h265.714l77.143-77.714c21.143-20.571 48.571-32 77.714-32s56.571 11.429 77.714 32l77.714 77.714h265.143c30.286 0 54.857-24.571 54.857-54.857zM765.143 636c5.714-13.714 2.857-29.714-8-40l-256-256c-6.857-7.429-16.571-10.857-25.714-10.857s-18.857 3.429-25.714 10.857l-256 256c-10.857 10.286-13.714 26.286-8 40 5.714 13.143 18.857 22.286 33.714 22.286h146.286v256c0 20 16.571 36.571 36.571 36.571h146.286c20 0 36.571-16.571 36.571-36.571v-256h146.286c14.857 0 28-9.143 33.714-22.286z" />
<glyph unicode="&#xf01c;" glyph-name="inbox" horiz-adv-x="878" d="M584.571 402.286h180.571c-1.143 2.857-1.714 6.286-2.857 9.143l-121.143 283.429h-404.571l-121.143-283.429c-1.143-2.857-1.714-6.286-2.857-9.143h180.571l54.286-109.714h182.857zM877.714 385.143v-275.429c0-20-16.571-36.571-36.571-36.571h-804.571c-20 0-36.571 16.571-36.571 36.571v275.429c0 20.571 6.286 50.857 14.286 70.286l136 315.429c8 18.857 30.857 33.714 50.857 33.714h475.429c20 0 42.857-14.857 50.857-33.714l136-315.429c8-19.429 14.286-49.714 14.286-70.286z" />
<glyph unicode="&#xf021;" glyph-name="refresh" horiz-adv-x="878" d="M863.429 347.428c0-1.143 0-2.857-0.571-4-48.571-202.286-215.429-343.429-426.286-343.429-111.429 0-219.429 44-300.571 121.143l-73.714-73.714c-6.857-6.857-16-10.857-25.714-10.857-20 0-36.571 16.571-36.571 36.571v256c0 20 16.571 36.571 36.571 36.571h256c20 0 36.571-16.571 36.571-36.571 0-9.714-4-18.857-10.857-25.714l-78.286-78.286c53.714-50.286 125.143-78.857 198.857-78.857 101.714 0 196 52.571 249.143 139.429 13.714 22.286 20.571 44 30.286 66.857 2.857 8 8.571 13.143 17.143 13.143h109.714c10.286 0 18.286-8.571 18.286-18.286zM877.714 804.571v-256c0-20-16.571-36.571-36.571-36.571h-256c-20 0-36.571 16.571-36.571 36.571 0 9.714 4 18.857 10.857 25.714l78.857 78.857c-54.286 50.286-125.714 78.286-199.429 78.286-101.714 0-196-52.571-249.143-139.429-13.714-22.286-20.571-44-30.286-66.857-2.857-8-8.571-13.143-17.143-13.143h-113.714c-10.286 0-18.286 8.571-18.286 18.286v4c49.143 202.857 217.714 343.429 428.571 343.429 112 0 221.143-44.571 302.286-121.143l74.286 73.714c6.857 6.857 16 10.857 25.714 10.857 20 0 36.571-16.571 36.571-36.571z" />
<glyph unicode="&#xf023;" glyph-name="lock" horiz-adv-x="658" d="M182.857 512h292.571v109.714c0 80.571-65.714 146.286-146.286 146.286s-146.286-65.714-146.286-146.286v-109.714zM658.286 457.143v-329.143c0-30.286-24.571-54.857-54.857-54.857h-548.571c-30.286 0-54.857 24.571-54.857 54.857v329.143c0 30.286 24.571 54.857 54.857 54.857h18.286v109.714c0 140.571 115.429 256 256 256s256-115.429 256-256v-109.714h18.286c30.286 0 54.857-24.571 54.857-54.857z" />
<glyph unicode="&#xf029;" glyph-name="qrcode" horiz-adv-x="805" d="M219.429 292.571v-73.143h-73.143v73.143h73.143zM219.429 731.428v-73.143h-73.143v73.143h73.143zM658.286 731.428v-73.143h-73.143v73.143h73.143zM73.143 146.857h219.429v218.857h-219.429v-218.857zM73.143 585.143h219.429v219.429h-219.429v-219.429zM512 585.143h219.429v219.429h-219.429v-219.429zM365.714 438.857v-365.714h-365.714v365.714h365.714zM658.286 146.286v-73.143h-73.143v73.143h73.143zM804.571 146.286v-73.143h-73.143v73.143h73.143zM804.571 438.857v-219.429h-219.429v73.143h-73.143v-219.429h-73.143v365.714h219.429v-73.143h73.143v73.143h73.143zM365.714 877.714v-365.714h-365.714v365.714h365.714zM804.571 877.714v-365.714h-365.714v365.714h365.714z" />
<glyph unicode="&#xf040;" glyph-name="pencil" horiz-adv-x="866" d="M207.429 73.143l52 52-134.286 134.286-52-52v-61.143h73.143v-73.143h61.143zM506.286 603.428c0 7.429-5.143 12.571-12.571 12.571-3.429 0-6.857-1.143-9.714-4l-309.714-309.714c-2.857-2.857-4-6.286-4-9.714 0-7.429 5.143-12.571 12.571-12.571 3.429 0 6.857 1.143 9.714 4l309.714 309.714c2.857 2.857 4 6.286 4 9.714zM475.429 713.143l237.714-237.714-475.429-475.429h-237.714v237.714zM865.714 658.286c0-19.429-8-38.286-21.143-51.429l-94.857-94.857-237.714 237.714 94.857 94.286c13.143 13.714 32 21.714 51.429 21.714s38.286-8 52-21.714l134.286-133.714c13.143-13.714 21.143-32.571 21.143-52z" />
<glyph unicode="&#xf044;" glyph-name="edit, pencil-square-o" horiz-adv-x="1025" d="M507.429 274.286l66.286 66.286-86.857 86.857-66.286-66.286v-32h54.857v-54.857h32zM758.857 685.714c-5.143 5.143-13.714 4.571-18.857-0.571l-200-200c-5.143-5.143-5.714-13.714-0.571-18.857s13.714-4.571 18.857 0.571l200 200c5.143 5.143 5.714 13.714 0.571 18.857zM804.571 346.286v-108.571c0-90.857-73.714-164.571-164.571-164.571h-475.429c-90.857 0-164.571 73.714-164.571 164.571v475.429c0 90.857 73.714 164.571 164.571 164.571h475.429c22.857 0 45.714-4.571 66.857-14.286 5.143-2.286 9.143-7.429 10.286-13.143 1.143-6.286-0.571-12-5.143-16.571l-28-28c-5.143-5.143-12-6.857-18.286-4.571-8.571 2.286-17.143 3.429-25.714 3.429h-475.429c-50.286 0-91.429-41.143-91.429-91.429v-475.429c0-50.286 41.143-91.429 91.429-91.429h475.429c50.286 0 91.429 41.143 91.429 91.429v72c0 4.571 1.714 9.143 5.143 12.571l36.571 36.571c5.714 5.714 13.143 6.857 20 4s11.429-9.143 11.429-16.571zM749.714 768l164.571-164.571-384-384h-164.571v164.571zM1003.429 692.571l-52.571-52.571-164.571 164.571 52.571 52.571c21.143 21.143 56.571 21.143 77.714 0l86.857-86.857c21.143-21.143 21.143-56.571 0-77.714z" />
<glyph unicode="&#xf054;" glyph-name="chevron-right" horiz-adv-x="695" d="M632.571 449.714l-424-424c-14.286-14.286-37.143-14.286-51.429 0l-94.857 94.857c-14.286 14.286-14.286 37.143 0 51.429l303.429 303.429-303.429 303.429c-14.286 14.286-14.286 37.143 0 51.429l94.857 94.857c14.286 14.286 37.143 14.286 51.429 0l424-424c14.286-14.286 14.286-37.143 0-51.429z" />
<glyph unicode="&#xf055;" glyph-name="plus-circle" horiz-adv-x="878" d="M694.857 402.286v73.143c0 20-16.571 36.571-36.571 36.571h-146.286v146.286c0 20-16.571 36.571-36.571 36.571h-73.143c-20 0-36.571-16.571-36.571-36.571v-146.286h-146.286c-20 0-36.571-16.571-36.571-36.571v-73.143c0-20 16.571-36.571 36.571-36.571h146.286v-146.286c0-20 16.571-36.571 36.571-36.571h73.143c20 0 36.571 16.571 36.571 36.571v146.286h146.286c20 0 36.571 16.571 36.571 36.571zM877.714 438.857c0-242.286-196.571-438.857-438.857-438.857s-438.857 196.571-438.857 438.857 196.571 438.857 438.857 438.857 438.857-196.571 438.857-438.857z" />
<glyph unicode="&#xf057;" glyph-name="times-circle" horiz-adv-x="878" d="M656.571 309.714c0 9.714-4 18.857-10.857 25.714l-103.429 103.429 103.429 103.429c6.857 6.857 10.857 16 10.857 25.714s-4 19.429-10.857 26.286l-51.429 51.429c-6.857 6.857-16.571 10.857-26.286 10.857s-18.857-4-25.714-10.857l-103.429-103.429-103.429 103.429c-6.857 6.857-16 10.857-25.714 10.857s-19.429-4-26.286-10.857l-51.429-51.429c-6.857-6.857-10.857-16.571-10.857-26.286s4-18.857 10.857-25.714l103.429-103.429-103.429-103.429c-6.857-6.857-10.857-16-10.857-25.714s4-19.429 10.857-26.286l51.429-51.429c6.857-6.857 16.571-10.857 26.286-10.857s18.857 4 25.714 10.857l103.429 103.429 103.429-103.429c6.857-6.857 16-10.857 25.714-10.857s19.429 4 26.286 10.857l51.429 51.429c6.857 6.857 10.857 16.571 10.857 26.286zM877.714 438.857c0-242.286-196.571-438.857-438.857-438.857s-438.857 196.571-438.857 438.857 196.571 438.857 438.857 438.857 438.857-196.571 438.857-438.857z" />
<glyph unicode="&#xf058;" glyph-name="check-circle" horiz-adv-x="878" d="M733.714 531.428c0 9.714-3.429 19.429-10.286 26.286l-52 51.429c-6.857 6.857-16 10.857-25.714 10.857s-18.857-4-25.714-10.857l-233.143-232.571-129.143 129.143c-6.857 6.857-16 10.857-25.714 10.857s-18.857-4-25.714-10.857l-52-51.429c-6.857-6.857-10.286-16.571-10.286-26.286s3.429-18.857 10.286-25.714l206.857-206.857c6.857-6.857 16.571-10.857 25.714-10.857 9.714 0 19.429 4 26.286 10.857l310.286 310.286c6.857 6.857 10.286 16 10.286 25.714zM877.714 438.857c0-242.286-196.571-438.857-438.857-438.857s-438.857 196.571-438.857 438.857 196.571 438.857 438.857 438.857 438.857-196.571 438.857-438.857z" />
<glyph unicode="&#xf059;" glyph-name="question-circle" horiz-adv-x="878" d="M512 164.571v109.714c0 10.286-8 18.286-18.286 18.286h-109.714c-10.286 0-18.286-8-18.286-18.286v-109.714c0-10.286 8-18.286 18.286-18.286h109.714c10.286 0 18.286 8 18.286 18.286zM658.286 548.571c0 104.571-109.714 182.857-208 182.857-93.143 0-162.857-40-212-121.714-5.143-8-2.857-18.286 4.571-24l75.429-57.143c2.857-2.286 6.857-3.429 10.857-3.429 5.143 0 10.857 2.286 14.286 6.857 26.857 34.286 38.286 44.571 49.143 52.571 9.714 6.857 28.571 13.714 49.143 13.714 36.571 0 70.286-23.429 70.286-48.571 0-29.714-15.429-44.571-50.286-60.571-40.571-18.286-96-65.714-96-121.143v-20.571c0-10.286 8-18.286 18.286-18.286h109.714c10.286 0 18.286 8 18.286 18.286v0c0 13.143 16.571 41.143 43.429 56.571 43.429 24.571 102.857 57.714 102.857 144.571zM877.714 438.857c0-242.286-196.571-438.857-438.857-438.857s-438.857 196.571-438.857 438.857 196.571 438.857 438.857 438.857 438.857-196.571 438.857-438.857z" />
<glyph unicode="&#xf05e;" glyph-name="ban" horiz-adv-x="878" d="M749.714 440.571c0 62.286-18.286 120-49.714 168.571l-430.857-430.286c49.143-32 107.429-50.857 169.714-50.857 171.429 0 310.857 140 310.857 312.571zM178.857 269.714l431.429 430.857c-49.143 33.143-108 52-171.429 52-171.429 0-310.857-140-310.857-312 0-63.429 18.857-121.714 50.857-170.857zM877.714 440.571c0-243.429-196.571-440.571-438.857-440.571s-438.857 197.143-438.857 440.571c0 242.857 196.571 440 438.857 440s438.857-197.143 438.857-440z" />
<glyph unicode="&#xf06e;" glyph-name="eye" d="M950.857 402.286c-54.286 84-128.571 156-217.714 201.714 22.857-38.857 34.857-83.429 34.857-128.571 0-141.143-114.857-256-256-256s-256 114.857-256 256c0 45.143 12 89.714 34.857 128.571-89.143-45.714-163.429-117.714-217.714-201.714 97.714-150.857 255.429-256 438.857-256s341.143 105.143 438.857 256zM539.429 621.714c0 14.857-12.571 27.429-27.429 27.429-95.429 0-173.714-78.286-173.714-173.714 0-14.857 12.571-27.429 27.429-27.429s27.429 12.571 27.429 27.429c0 65.143 53.714 118.857 118.857 118.857 14.857 0 27.429 12.571 27.429 27.429zM1024 402.286c0-14.286-4.571-27.429-11.429-39.429-105.143-173.143-297.714-289.714-500.571-289.714s-395.429 117.143-500.571 289.714c-6.857 12-11.429 25.143-11.429 39.429s4.571 27.429 11.429 39.429c105.143 172.571 297.714 289.714 500.571 289.714s395.429-117.143 500.571-289.714c6.857-12 11.429-25.143 11.429-39.429z" />
<glyph unicode="&#xf071;" glyph-name="exclamation-triangle, warning" d="M585.143 165.143v108.571c0 10.286-8 18.857-18.286 18.857h-109.714c-10.286 0-18.286-8.571-18.286-18.857v-108.571c0-10.286 8-18.857 18.286-18.857h109.714c10.286 0 18.286 8.571 18.286 18.857zM584 378.857l10.286 262.286c0 3.429-1.714 8-5.714 10.857-3.429 2.857-8.571 6.286-13.714 6.286h-125.714c-5.143 0-10.286-3.429-13.714-6.286-4-2.857-5.714-8.571-5.714-12l9.714-261.143c0-7.429 8.571-13.143 19.429-13.143h105.714c10.286 0 18.857 5.714 19.429 13.143zM576 912.571l438.857-804.571c12.571-22.286 12-49.714-1.143-72s-37.143-36-62.857-36h-877.714c-25.714 0-49.714 13.714-62.857 36s-13.714 49.714-1.143 72l438.857 804.571c12.571 23.429 37.143 38.286 64 38.286s51.429-14.857 64-38.286z" />
<glyph unicode="&#xf075;" glyph-name="comment" d="M1024 438.857c0-202.286-229.143-365.714-512-365.714-28 0-56 1.714-82.857 4.571-74.857-66.286-164-113.143-262.857-138.286-20.571-5.714-42.857-9.714-65.143-12.571-12.571-1.143-24.571 8-27.429 21.714v0.571c-2.857 14.286 6.857 22.857 15.429 33.143 36 40.571 77.143 74.857 104 170.286-117.714 66.857-193.143 170.286-193.143 286.286 0 201.714 229.143 365.714 512 365.714s512-163.429 512-365.714z" />
<glyph unicode="&#xf078;" glyph-name="chevron-down" d="M961.714 489.143l-424-423.429c-14.286-14.286-37.143-14.286-51.429 0l-424 423.429c-14.286 14.286-14.286 37.714 0 52l94.857 94.286c14.286 14.286 37.143 14.286 51.429 0l303.429-303.429 303.429 303.429c14.286 14.286 37.143 14.286 51.429 0l94.857-94.286c14.286-14.286 14.286-37.714 0-52z" />
<glyph unicode="&#xf07c;" glyph-name="folder-open" horiz-adv-x="1074" d="M1073.714 406.857c0-13.714-8.571-27.429-17.714-37.714l-192-226.286c-33.143-38.857-100.571-69.714-150.857-69.714h-621.714c-20.571 0-49.714 6.286-49.714 32 0 13.714 8.571 27.429 17.714 37.714l192 226.286c33.143 38.857 100.571 69.714 150.857 69.714h621.714c20.571 0 49.714-6.286 49.714-32zM877.714 603.428v-91.429h-475.429c-71.429 0-160-40.571-206.286-95.429l-195.429-229.714c0 4.571-0.571 9.714-0.571 14.286v548.571c0 70.286 57.714 128 128 128h182.857c70.286 0 128-57.714 128-128v-18.286h310.857c70.286 0 128-57.714 128-128z" />
<glyph unicode="&#xf080;" glyph-name="bar-chart, bar-chart-o" horiz-adv-x="1170" d="M365.714 438.857v-292.571h-146.286v292.571h146.286zM585.143 731.428v-585.143h-146.286v585.143h146.286zM1170.286 73.143v-73.143h-1170.286v877.714h73.143v-804.571h1097.143zM804.571 585.143v-438.857h-146.286v438.857h146.286zM1024 804.571v-658.286h-146.286v658.286h146.286z" />
<glyph unicode="&#xf086;" glyph-name="comments" d="M804.571 512c0-161.714-180-292.571-402.286-292.571-34.857 0-68.571 3.429-100.571 9.143-47.429-33.714-101.143-58.286-158.857-73.143-15.429-4-32-6.857-49.143-9.143h-1.714c-8.571 0-16.571 6.857-18.286 16.571v0c-2.286 10.857 5.143 17.714 11.429 25.143 22.286 25.143 47.429 47.429 66.857 94.857-92.571 53.714-152 136.571-152 229.143 0 161.714 180 292.571 402.286 292.571s402.286-130.857 402.286-292.571zM1024 365.714c0-93.143-59.429-175.429-152-229.143 19.429-47.429 44.571-69.714 66.857-94.857 6.286-7.429 13.714-14.286 11.429-25.143v0c-2.286-10.286-10.857-17.714-20-16.571-17.143 2.286-33.714 5.143-49.143 9.143-57.714 14.857-111.429 39.429-158.857 73.143-32-5.714-65.714-9.143-100.571-9.143-103.429 0-198.286 28.571-269.714 75.429 16.571-1.143 33.714-2.286 50.286-2.286 122.857 0 238.857 35.429 327.429 99.429 95.429 69.714 148 164 148 266.286 0 29.714-4.571 58.857-13.143 86.857 96.571-53.143 159.429-137.714 159.429-233.143z" />
<glyph unicode="&#xf093;" glyph-name="upload" horiz-adv-x="951" d="M731.429 109.714c0 20-16.571 36.571-36.571 36.571s-36.571-16.571-36.571-36.571 16.571-36.571 36.571-36.571 36.571 16.571 36.571 36.571zM877.714 109.714c0 20-16.571 36.571-36.571 36.571s-36.571-16.571-36.571-36.571 16.571-36.571 36.571-36.571 36.571 16.571 36.571 36.571zM950.857 237.714v-182.857c0-30.286-24.571-54.857-54.857-54.857h-841.143c-30.286 0-54.857 24.571-54.857 54.857v182.857c0 30.286 24.571 54.857 54.857 54.857h244c15.429-42.286 56-73.143 103.429-73.143h146.286c47.429 0 88 30.857 103.429 73.143h244c30.286 0 54.857-24.571 54.857-54.857zM765.143 608c-5.714-13.714-18.857-22.857-33.714-22.857h-146.286v-256c0-20-16.571-36.571-36.571-36.571h-146.286c-20 0-36.571 16.571-36.571 36.571v256h-146.286c-14.857 0-28 9.143-33.714 22.857-5.714 13.143-2.857 29.143 8 39.429l256 256c6.857 7.429 16.571 10.857 25.714 10.857s18.857-3.429 25.714-10.857l256-256c10.857-10.286 13.714-26.286 8-39.429z" />
<glyph unicode="&#xf0a9;" glyph-name="arrow-circle-right" horiz-adv-x="878" d="M734.286 438.857c0 9.714-3.429 18.857-10.286 25.714l-258.857 258.857c-6.857 6.857-16 10.286-25.714 10.286s-18.857-3.429-25.714-10.286l-52-52c-6.857-6.857-10.286-16-10.286-25.714s3.429-18.857 10.286-25.714l108-108h-286.857c-20 0-36.571-16.571-36.571-36.571v-73.143c0-20 16.571-36.571 36.571-36.571h286.857l-108-108c-6.857-6.857-10.857-16-10.857-25.714s4-18.857 10.857-25.714l52-52c6.857-6.857 16-10.286 25.714-10.286s18.857 3.429 25.714 10.286l258.857 258.857c6.857 6.857 10.286 16 10.286 25.714zM877.714 438.857c0-242.286-196.571-438.857-438.857-438.857s-438.857 196.571-438.857 438.857 196.571 438.857 438.857 438.857 438.857-196.571 438.857-438.857z" />
<glyph unicode="&#xf0ab;" glyph-name="arrow-circle-down" horiz-adv-x="878" d="M733.714 438.286c0 9.714-3.429 18.857-10.286 25.714l-52 52c-6.857 6.857-16 10.286-25.714 10.286s-18.857-3.429-25.714-10.286l-108-108v286.857c0 20-16.571 36.571-36.571 36.571h-73.143c-20 0-36.571-16.571-36.571-36.571v-286.857l-108 108c-6.857 6.857-16 10.857-25.714 10.857s-18.857-4-25.714-10.857l-52-52c-6.857-6.857-10.286-16-10.286-25.714s3.429-18.857 10.286-25.714l258.857-258.857c6.857-6.857 16-10.286 25.714-10.286s18.857 3.429 25.714 10.286l258.857 258.857c6.857 6.857 10.286 16 10.286 25.714zM877.714 438.857c0-242.286-196.571-438.857-438.857-438.857s-438.857 196.571-438.857 438.857 196.571 438.857 438.857 438.857 438.857-196.571 438.857-438.857z" />
<glyph unicode="&#xf0b0;" glyph-name="filter" horiz-adv-x="805" d="M801.714 782.286c5.714-13.714 2.857-29.714-8-40l-281.714-281.714v-424c0-14.857-9.143-28-22.286-33.714-4.571-1.714-9.714-2.857-14.286-2.857-9.714 0-18.857 3.429-25.714 10.857l-146.286 146.286c-6.857 6.857-10.857 16-10.857 25.714v277.714l-281.714 281.714c-10.857 10.286-13.714 26.286-8 40 5.714 13.143 18.857 22.286 33.714 22.286h731.429c14.857 0 28-9.143 33.714-22.286z" />
<glyph unicode="&#xf0c7;" glyph-name="floppy-o, save" horiz-adv-x="878" d="M219.429 73.143h438.857v219.429h-438.857v-219.429zM731.429 73.143h73.143v512c0 10.857-9.714 34.286-17.143 41.714l-160.571 160.571c-8 8-30.286 17.143-41.714 17.143v-237.714c0-30.286-24.571-54.857-54.857-54.857h-329.143c-30.286 0-54.857 24.571-54.857 54.857v237.714h-73.143v-731.429h73.143v237.714c0 30.286 24.571 54.857 54.857 54.857h475.429c30.286 0 54.857-24.571 54.857-54.857v-237.714zM512 603.428v182.857c0 9.714-8.571 18.286-18.286 18.286h-109.714c-9.714 0-18.286-8.571-18.286-18.286v-182.857c0-9.714 8.571-18.286 18.286-18.286h109.714c9.714 0 18.286 8.571 18.286 18.286zM877.714 585.143v-530.286c0-30.286-24.571-54.857-54.857-54.857h-768c-30.286 0-54.857 24.571-54.857 54.857v768c0 30.286 24.571 54.857 54.857 54.857h530.286c30.286 0 72-17.143 93.714-38.857l160-160c21.714-21.714 38.857-63.429 38.857-93.714z" />
<glyph unicode="&#xf0ec;" glyph-name="exchange" d="M1024 274.286v-109.714c0-9.714-8.571-18.286-18.286-18.286h-786.286v-109.714c0-9.714-8-18.286-18.286-18.286-5.143 0-9.714 2.286-13.714 5.714l-182.286 182.857c-3.429 3.429-5.143 8-5.143 12.571 0 5.143 1.714 9.714 5.143 13.143l182.857 182.857c3.429 3.429 8.571 5.143 13.143 5.143 9.714 0 18.286-8 18.286-18.286v-109.714h786.286c9.714 0 18.286-8 18.286-18.286zM1024 585.143c0-4.571-1.714-9.714-5.143-13.143l-182.857-182.857c-3.429-3.429-8.571-5.143-13.143-5.143-9.714 0-18.286 8.571-18.286 18.286v109.714h-786.286c-9.714 0-18.286 8.571-18.286 18.286v109.714c0 9.714 8.571 18.286 18.286 18.286h786.286v109.714c0 10.286 8 18.286 18.286 18.286 5.143 0 9.714-2.286 13.714-5.714l182.286-182.286c3.429-3.429 5.143-8.571 5.143-13.143z" />
<glyph unicode="&#xf0ee;" glyph-name="cloud-upload" horiz-adv-x="1097" d="M731.429 457.143c0 4.571-1.714 9.714-5.143 13.143l-201.143 201.143c-3.429 3.429-8 5.143-13.143 5.143-4.571 0-9.714-1.714-13.143-5.143l-200.571-200.571c-3.429-4-5.714-8.571-5.714-13.714 0-10.286 8-18.286 18.286-18.286h128v-201.143c0-9.714 8.571-18.286 18.286-18.286h109.714c9.714 0 18.286 8.571 18.286 18.286v201.143h128c10.286 0 18.286 8.571 18.286 18.286zM1097.143 292.571c0-121.143-98.286-219.429-219.429-219.429h-621.714c-141.143 0-256 114.857-256 256 0 99.429 57.714 189.714 147.429 231.429-0.571 8.571-1.143 16.571-1.143 24.571 0 161.714 130.857 292.571 292.571 292.571 118.857 0 225.714-72 270.857-181.714 26.286 22.857 60 35.429 94.857 35.429 80.571 0 146.286-65.714 146.286-146.286 0-28-8-55.429-23.429-78.857 99.429-23.429 169.714-112 169.714-213.714z" />
<glyph unicode="&#xf105;" glyph-name="angle-right" horiz-adv-x="347" d="M340 402.286c0-4.571-2.286-9.714-5.714-13.143l-266.286-266.286c-3.429-3.429-8.571-5.714-13.143-5.714s-9.714 2.286-13.143 5.714l-28.571 28.571c-3.429 3.429-5.714 8-5.714 13.143 0 4.571 2.286 9.714 5.714 13.143l224.571 224.571-224.571 224.571c-3.429 3.429-5.714 8.571-5.714 13.143s2.286 9.714 5.714 13.143l28.571 28.571c3.429 3.429 8.571 5.714 13.143 5.714s9.714-2.286 13.143-5.714l266.286-266.286c3.429-3.429 5.714-8.571 5.714-13.143z" />
<glyph unicode="&#xf107;" glyph-name="angle-down" horiz-adv-x="658" d="M614.286 530.286c0-4.571-2.286-9.714-5.714-13.143l-266.286-266.286c-3.429-3.429-8.571-5.714-13.143-5.714s-9.714 2.286-13.143 5.714l-266.286 266.286c-3.429 3.429-5.714 8.571-5.714 13.143s2.286 9.714 5.714 13.143l28.571 28.571c3.429 3.429 8 5.714 13.143 5.714 4.571 0 9.714-2.286 13.143-5.714l224.571-224.571 224.571 224.571c3.429 3.429 8.571 5.714 13.143 5.714s9.714-2.286 13.143-5.714l28.571-28.571c3.429-3.429 5.714-8.571 5.714-13.143z" />
<glyph unicode="&#xf10b;" glyph-name="mobile, mobile-phone" horiz-adv-x="439" d="M265.143 146.286c0 25.143-20.571 45.714-45.714 45.714s-45.714-20.571-45.714-45.714 20.571-45.714 45.714-45.714 45.714 20.571 45.714 45.714zM384 237.714v402.286c0 9.714-8.571 18.286-18.286 18.286h-292.571c-9.714 0-18.286-8.571-18.286-18.286v-402.286c0-9.714 8.571-18.286 18.286-18.286h292.571c9.714 0 18.286 8.571 18.286 18.286zM274.286 722.286c0 5.143-4 9.143-9.143 9.143h-91.429c-5.143 0-9.143-4-9.143-9.143s4-9.143 9.143-9.143h91.429c5.143 0 9.143 4 9.143 9.143zM438.857 731.428v-585.143c0-40-33.143-73.143-73.143-73.143h-292.571c-40 0-73.143 33.143-73.143 73.143v585.143c0 40 33.143 73.143 73.143 73.143h292.571c40 0 73.143-33.143 73.143-73.143z" />
<glyph unicode="&#xf10c;" glyph-name="circle-o" horiz-adv-x="878" d="M438.857 749.714c-171.429 0-310.857-139.429-310.857-310.857s139.429-310.857 310.857-310.857 310.857 139.429 310.857 310.857-139.429 310.857-310.857 310.857zM877.714 438.857c0-242.286-196.571-438.857-438.857-438.857s-438.857 196.571-438.857 438.857 196.571 438.857 438.857 438.857v0c242.286 0 438.857-196.571 438.857-438.857z" />
<glyph unicode="&#xf121;" glyph-name="code" horiz-adv-x="1097" d="M352.571 151.428l-28.571-28.571c-7.429-7.429-18.857-7.429-26.286 0l-266.286 266.286c-7.429 7.429-7.429 18.857 0 26.286l266.286 266.286c7.429 7.429 18.857 7.429 26.286 0l28.571-28.571c7.429-7.429 7.429-18.857 0-26.286l-224.571-224.571 224.571-224.571c7.429-7.429 7.429-18.857 0-26.286zM690.286 761.143l-213.143-737.714c-2.857-9.714-13.143-15.429-22.286-12.571l-35.429 9.714c-9.714 2.857-15.429 13.143-12.571 22.857l213.143 737.714c2.857 9.714 13.143 15.429 22.286 12.571l35.429-9.714c9.714-2.857 15.429-13.143 12.571-22.857zM1065.714 389.143l-266.286-266.286c-7.429-7.429-18.857-7.429-26.286 0l-28.571 28.571c-7.429 7.429-7.429 18.857 0 26.286l224.571 224.571-224.571 224.571c-7.429 7.429-7.429 18.857 0 26.286l28.571 28.571c7.429 7.429 18.857 7.429 26.286 0l266.286-266.286c7.429-7.429 7.429-18.857 0-26.286z" />
<glyph unicode="&#xf15c;" glyph-name="file-text" horiz-adv-x="878" d="M838.857 678.857c5.714-5.714 10.857-12.571 16-20.571h-269.714v269.714c8-5.143 14.857-10.286 20.571-16zM566.857 585.143h310.857v-603.429c0-30.286-24.571-54.857-54.857-54.857h-768c-30.286 0-54.857 24.571-54.857 54.857v914.286c0 30.286 24.571 54.857 54.857 54.857h457.143v-310.857c0-30.286 24.571-54.857 54.857-54.857zM658.286 164.571v36.571c0 10.286-8 18.286-18.286 18.286h-402.286c-10.286 0-18.286-8-18.286-18.286v-36.571c0-10.286 8-18.286 18.286-18.286h402.286c10.286 0 18.286 8 18.286 18.286zM658.286 310.857v36.571c0 10.286-8 18.286-18.286 18.286h-402.286c-10.286 0-18.286-8-18.286-18.286v-36.571c0-10.286 8-18.286 18.286-18.286h402.286c10.286 0 18.286 8 18.286 18.286zM658.286 457.143v36.571c0 10.286-8 18.286-18.286 18.286h-402.286c-10.286 0-18.286-8-18.286-18.286v-36.571c0-10.286 8-18.286 18.286-18.286h402.286c10.286 0 18.286 8 18.286 18.286z" />
<glyph unicode="&#xf187;" glyph-name="archive" d="M621.714 475.428c0 20-16.571 36.571-36.571 36.571h-146.286c-20 0-36.571-16.571-36.571-36.571s16.571-36.571 36.571-36.571h146.286c20 0 36.571 16.571 36.571 36.571zM950.857 585.143v-548.571c0-20-16.571-36.571-36.571-36.571h-804.571c-20 0-36.571 16.571-36.571 36.571v548.571c0 20 16.571 36.571 36.571 36.571h804.571c20 0 36.571-16.571 36.571-36.571zM987.429 841.143v-146.286c0-20-16.571-36.571-36.571-36.571h-877.714c-20 0-36.571 16.571-36.571 36.571v146.286c0 20 16.571 36.571 36.571 36.571h877.714c20 0 36.571-16.571 36.571-36.571z" />
<glyph unicode="&#xf192;" glyph-name="dot-circle-o" horiz-adv-x="878" d="M585.143 438.857c0-80.571-65.714-146.286-146.286-146.286s-146.286 65.714-146.286 146.286 65.714 146.286 146.286 146.286 146.286-65.714 146.286-146.286zM438.857 749.714c-171.429 0-310.857-139.429-310.857-310.857s139.429-310.857 310.857-310.857 310.857 139.429 310.857 310.857-139.429 310.857-310.857 310.857zM877.714 438.857c0-242.286-196.571-438.857-438.857-438.857s-438.857 196.571-438.857 438.857 196.571 438.857 438.857 438.857v0c242.286 0 438.857-196.571 438.857-438.857z" />
<glyph unicode="&#xf1da;" glyph-name="history" horiz-adv-x="878" d="M877.714 438.857c0-241.714-197.143-438.857-438.857-438.857-130.857 0-254.286 57.714-337.714 158.286-5.714 7.429-5.143 18.286 1.143 24.571l78.286 78.857c4 3.429 9.143 5.143 14.286 5.143 5.143-0.571 10.286-2.857 13.143-6.857 56-72.571 140-113.714 230.857-113.714 161.143 0 292.571 131.429 292.571 292.571s-131.429 292.571-292.571 292.571c-74.857 0-145.714-28.571-198.857-78.286l78.286-78.857c10.857-10.286 13.714-26.286 8-39.429-5.714-13.714-18.857-22.857-33.714-22.857h-256c-20 0-36.571 16.571-36.571 36.571v256c0 14.857 9.143 28 22.857 33.714 13.143 5.714 29.143 2.857 39.429-8l74.286-73.714c80.571 76 189.714 121.143 302.286 121.143 241.714 0 438.857-197.143 438.857-438.857zM512 603.428v-256c0-10.286-8-18.286-18.286-18.286h-182.857c-10.286 0-18.286 8-18.286 18.286v36.571c0 10.286 8 18.286 18.286 18.286h128v201.143c0 10.286 8 18.286 18.286 18.286h36.571c10.286 0 18.286-8 18.286-18.286z" />
<glyph unicode="&#xf1e6;" glyph-name="plug" horiz-adv-x="1031" d="M1002.857 692c28-28.571 28-74.857 0-103.429l-229.143-228.571 85.714-85.714-91.429-91.429c-125.143-125.143-316-142.857-457.714-49.143l-206.857-206.857h-103.429v103.429l206.857 206.857c-93.714 141.714-76 332.571 49.143 457.714l91.429 91.429 85.714-85.714 228.571 229.143c28.571 28 74.857 28 103.429 0 28.571-28.571 28.571-75.429 0-103.429l-228.571-229.143 133.714-133.714 229.143 228.571c28.571 28.571 74.857 28.571 103.429 0z" />
<glyph unicode="&#xf1f8;" glyph-name="trash" horiz-adv-x="805" d="M292.571 164.571v402.286c0 10.286-8 18.286-18.286 18.286h-36.571c-10.286 0-18.286-8-18.286-18.286v-402.286c0-10.286 8-18.286 18.286-18.286h36.571c10.286 0 18.286 8 18.286 18.286zM438.857 164.571v402.286c0 10.286-8 18.286-18.286 18.286h-36.571c-10.286 0-18.286-8-18.286-18.286v-402.286c0-10.286 8-18.286 18.286-18.286h36.571c10.286 0 18.286 8 18.286 18.286zM585.143 164.571v402.286c0 10.286-8 18.286-18.286 18.286h-36.571c-10.286 0-18.286-8-18.286-18.286v-402.286c0-10.286 8-18.286 18.286-18.286h36.571c10.286 0 18.286 8 18.286 18.286zM274.286 731.428h256l-27.429 66.857c-1.714 2.286-6.857 5.714-9.714 6.286h-181.143c-3.429-0.571-8-4-9.714-6.286zM804.571 713.143v-36.571c0-10.286-8-18.286-18.286-18.286h-54.857v-541.714c0-62.857-41.143-116.571-91.429-116.571h-475.429c-50.286 0-91.429 51.429-91.429 114.286v544h-54.857c-10.286 0-18.286 8-18.286 18.286v36.571c0 10.286 8 18.286 18.286 18.286h176.571l40 95.429c11.429 28 45.714 50.857 76 50.857h182.857c30.286 0 64.571-22.857 76-50.857l40-95.429h176.571c10.286 0 18.286-8 18.286-18.286z" />
<glyph unicode="&#xf29c;" glyph-name="question-circle-o" horiz-adv-x="878" d="M502.857 265.143v-91.429c0-10.286-8-18.286-18.286-18.286h-91.429c-10.286 0-18.286 8-18.286 18.286v91.429c0 10.286 8 18.286 18.286 18.286h91.429c10.286 0 18.286-8 18.286-18.286zM649.143 548.571c0-81.143-56.571-113.143-98.286-136.571-29.714-17.143-48-28-48-46.286v-18.286c0-10.286-8-18.286-18.286-18.286h-91.429c-10.286 0-18.286 8-18.286 18.286v38.857c0 70.286 50.286 92.571 90.857 110.857 34.286 16 55.429 26.857 55.429 52.571 0 33.143-41.714 57.714-79.429 57.714-20 0-41.143-6.286-54.286-15.429-12.571-8.571-24.571-21.143-45.714-47.429-3.429-4.571-8.571-6.857-14.286-6.857-4 0-8 1.143-10.857 3.429l-61.714 46.857c-7.429 5.714-9.143 16.571-4 24.571 46.857 73.714 112.571 109.714 199.429 109.714v0c93.714 0 198.857-74.286 198.857-173.714zM438.857 804.571c-201.714 0-365.714-164-365.714-365.714s164-365.714 365.714-365.714 365.714 164 365.714 365.714-164 365.714-365.714 365.714zM877.714 438.857c0-242.286-196.571-438.857-438.857-438.857s-438.857 196.571-438.857 438.857 196.571 438.857 438.857 438.857v0c242.286 0 438.857-196.571 438.857-438.857z" />
<glyph unicode="&#xf2bd;" glyph-name="user-circle" d="M870.286 185.714c-14.857 106.857-58.286 201.714-155.429 214.857-50.286-54.857-122.857-89.714-202.857-89.714s-152.571 34.857-202.857 89.714c-97.143-13.143-140.571-108-155.429-214.857 79.429-112 210.286-185.714 358.286-185.714s278.857 73.714 358.286 185.714zM731.429 585.143c0 121.143-98.286 219.429-219.429 219.429s-219.429-98.286-219.429-219.429 98.286-219.429 219.429-219.429 219.429 98.286 219.429 219.429zM1024 438.857c0-281.714-228.571-512-512-512-282.857 0-512 229.714-512 512 0 282.857 229.143 512 512 512s512-229.143 512-512z" />
<glyph unicode="&#xf2be;" glyph-name="user-circle-o" d="M512 950.857c282.857 0 512-229.143 512-512 0-281.143-228-512-512-512-283.429 0-512 230.286-512 512 0 282.857 229.143 512 512 512zM865.714 178.857c53.143 73.143 85.143 162.857 85.143 260 0 241.714-197.143 438.857-438.857 438.857s-438.857-197.143-438.857-438.857c0-97.143 32-186.857 85.143-260 20.571 102.286 70.286 186.857 174.857 186.857 46.286-45.143 109.143-73.143 178.857-73.143s132.571 28 178.857 73.143c104.571 0 154.286-84.571 174.857-186.857zM731.429 548.571c0 121.143-98.286 219.429-219.429 219.429s-219.429-98.286-219.429-219.429 98.286-219.429 219.429-219.429 219.429 98.286 219.429 219.429z" />
</font></defs></svg>